<?xml version="1.0" encoding="utf-8"?>
<!-- Generator: Adobe Illustrator 21.0.0, SVG Export Plug-In . SVG Version: 6.00 Build 0)  -->
<svg version="1.1" id="Capa_1" xmlns="http://www.w3.org/2000/svg" xmlns:xlink="http://www.w3.org/1999/xlink" x="0px" y="0px"
	 viewBox="0 0 36 36" style="enable-background:new 0 0 36 36;" xml:space="preserve">
<style type="text/css">
	.st0{fill:#66C6F6;}
</style>
<g>
	<path class="st0" d="M33,8.9h-5.3V3.8c0-1.1-0.9-2-2-2H10.3c-1.1,0-2,0.9-2,2v5.1H3c-1.7,0-3,1.3-3,3v19.2c0,1.7,1.3,3,3,3h30
		c1.7,0,3-1.3,3-3V11.9C36,10.2,34.7,8.9,33,8.9z M12.3,5.8h11.4v3.1H12.3V5.8z"/>
</g>
</svg>
